<svg width="54.177mm" height="20.032mm" version="1.1" viewBox="0 0 54.177 20.032" xmlns="http://www.w3.org/2000/svg" xmlns:cc="http://creativecommons.org/ns#" xmlns:dc="http://purl.org/dc/elements/1.1/" xmlns:rdf="http://www.w3.org/1999/02/22-rdf-syntax-ns#">
 <defs>
  <marker id="marker3371" overflow="visible" orient="auto">
   <path transform="matrix(-.8 0 0 -.8 -10 0)" d="m0 0 5-5-17.5 5 17.5 5z" fill="#822" fill-rule="evenodd" stroke="#822" stroke-width="1pt"/>
  </marker>
  <marker id="Arrow1Lstart" overflow="visible" orient="auto">
   <path transform="matrix(.8 0 0 .8 10 0)" d="m0 0 5-5-17.5 5 17.5 5z" fill="#228" fill-rule="evenodd" stroke="#228" stroke-width="1pt"/>
  </marker>
  <marker id="marker3115" overflow="visible" orient="auto">
   <path transform="matrix(-.8 0 0 -.8 -10 0)" d="m0 0 5-5-17.5 5 17.5 5z" fill="#222" fill-rule="evenodd" stroke="#222" stroke-width="1pt"/>
  </marker>
  <marker id="Arrow1Lend" overflow="visible" orient="auto">
   <path transform="matrix(-.8 0 0 -.8 -10 0)" d="m0 0 5-5-17.5 5 17.5 5z" fill="#828" fill-rule="evenodd" stroke="#828" stroke-width="1pt"/>
  </marker>
  <marker id="marker3115-9" overflow="visible" orient="auto">
   <path transform="matrix(-.8 0 0 -.8 -10 0)" d="m0 0 5-5-17.5 5 17.5 5z" fill="#228" fill-rule="evenodd" stroke="#228" stroke-width="1pt"/>
  </marker>
  <marker id="marker3371-4" overflow="visible" orient="auto">
   <path transform="matrix(-.8 0 0 -.8 -10 0)" d="m0 0 5-5-17.5 5 17.5 5z" fill="#a62" fill-rule="evenodd" stroke="#a62" stroke-width="1pt"/>
  </marker>
  <marker id="marker3371-5" overflow="visible" orient="auto">
   <path transform="matrix(.8 0 0 .8 10 0)" d="m0 0 5-5-17.5 5 17.5 5z" fill="#a62" fill-rule="evenodd" stroke="#a62" stroke-width="1pt"/>
  </marker>
 </defs>
 <g transform="translate(-.63762 -.75241)">
  <path d="m1.3229 14.552h18.521" fill="none" marker-end="url(#Arrow1Lend)" stroke="#828" stroke-dasharray="1.765, 0.706" stroke-width=".353"/>
  <g font-size="4.2333px" letter-spacing="0px" stroke-width=".26458" word-spacing="0px">
   <text x="21.166666" y="11.90625" fill="#000000" font-family="sans-serif" style="line-height:1.25" xml:space="preserve"><tspan x="21.166666" y="11.90625" font-family="serif" font-size="4.2333px" stroke-width=".26458">separation</tspan></text>
   <text x="21.166666" y="3.9687498" font-family="serif" style="line-height:1.25" xml:space="preserve"><tspan x="21.166666" y="3.9687498" font-family="serif" stroke-width=".26458">simulation</tspan></text>
   <text x="21.166666" y="15.874999" font-family="sans-serif" style="line-height:1.25" xml:space="preserve"><tspan x="21.166666" y="15.874999" font-family="serif" stroke-width=".26458">sim+sep</tspan></text>
   <text x="21.166666" y="7.9375" font-family="serif" style="line-height:1.25" xml:space="preserve"><tspan x="21.166666" y="7.9375" font-family="serif" stroke-width=".26458">equivalence</tspan></text>
   <text x="21.166666" y="19.84375" font-family="serif" style="line-height:1.25" xml:space="preserve"><tspan x="21.166666" y="19.84375" font-family="serif" stroke-width=".26458">incomparability</tspan></text>
  </g>
  <g fill="none" stroke-width=".353">
   <path d="m1.3229 2.6458h18.521" marker-end="url(#marker3115)" stroke="#222"/>
   <path d="m1.3229 6.6146h18.521" marker-end="url(#marker3115-9)" marker-start="url(#Arrow1Lstart)" stroke="#228"/>
   <path d="m1.3229 10.583h18.521" marker-end="url(#marker3371)" stroke="#822" stroke-dasharray="0.353, 0.706"/>
   <path d="m1.3229 18.521h18.521" marker-end="url(#marker3371-4)" marker-start="url(#marker3371-5)" stroke="#a62" stroke-dasharray="0.353, 0.706"/>
  </g>
 </g>
</svg>
